<svg
  width="179"
  height="42"
  viewBox="0 0 179 42"
  fill="none"
  xmlns="http://www.w3.org/2000/svg"
>
  <circle
    cx="89.6671"
    cy="-47.6662"
    r="88.8044"
    transform="rotate(67.1334 89.6671 -47.6662)"
    fill="url(#paint0_radial_11451_419)"
    fill-opacity="0.3"
  />
  <defs>
    <radialGradient
      id="paint0_radial_11451_419"
      cx="0"
      cy="0"
      r="1"
      gradientUnits="userSpaceOnUse"
      gradientTransform="translate(135.887 -103.753) rotate(122.665) scale(152.989)"
    >
      <stop stop-color="#FFFDFD" />
      <stop offset="1" stop-color="white" stop-opacity="0" />
    </radialGradient>
  </defs>
</svg>
