<svg width="576" height="189" viewBox="0 0 576 189" fill="none" xmlns="http://www.w3.org/2000/svg">
<path opacity="0.7" d="M574.029 95.1282C574.391 99.1694 572.912 103.367 569.587 107.694C566.256 112.027 561.118 116.427 554.303 120.822C540.673 129.611 520.521 138.262 495.295 146.282C444.859 162.317 374.353 175.765 295.742 182.807C217.13 189.848 145.357 189.146 92.8744 182.33C66.6246 178.921 45.2555 173.989 30.281 167.763C22.7926 164.649 16.9544 161.232 12.9072 157.56C8.86536 153.893 6.66413 150.025 6.30212 145.984C5.94012 141.942 7.41878 137.744 10.7445 133.417C14.0747 129.085 19.2127 124.685 26.0284 120.29C39.658 111.501 59.8104 102.85 85.0364 94.83C135.473 78.7949 205.978 65.347 284.589 58.3052C363.201 51.2634 434.974 51.9663 487.457 58.7822C513.706 62.1912 535.076 67.1226 550.05 73.3491C557.538 76.4627 563.377 79.8797 567.424 83.5515C571.466 87.2185 573.667 91.0869 574.029 95.1282Z" stroke="#53B0EB" stroke-width="2"/>
<path opacity="0.7" d="M569.388 43.3352C569.75 47.3765 568.272 51.5745 564.946 55.9014C561.616 60.2341 556.478 64.6343 549.662 69.0293C536.032 77.818 515.88 86.4689 490.654 94.4889C440.218 110.524 369.713 123.972 291.101 131.014C212.49 138.056 140.717 137.353 88.2338 130.537C61.984 127.128 40.6149 122.196 25.6403 115.97C18.152 112.856 12.3137 109.439 8.26654 105.767C4.22473 102.1 2.0235 98.232 1.6615 94.1907C1.29949 90.1495 2.77816 85.9515 6.10389 81.6245C9.43404 77.2918 14.5721 72.8916 21.3878 68.4966C35.0173 59.7079 55.1698 51.0571 80.3958 43.037C130.832 27.0019 201.337 13.554 279.949 6.51222C358.56 -0.529597 430.333 0.173337 482.816 6.98919C509.066 10.3982 530.435 15.3296 545.409 21.5561C552.898 24.6698 558.736 28.0867 562.783 31.7586C566.825 35.4256 569.026 39.2939 569.388 43.3352Z" stroke="#53B0EB" stroke-width="2"/>
</svg>
