<svg width="19" height="20" viewBox="0 0 19 20" fill="none" xmlns="http://www.w3.org/2000/svg">
<path d="M1.05188 9.02553H2.88889C3.93209 9.02553 4.77778 9.87121 4.77778 10.9144V11.8589C4.77778 12.9021 5.62346 13.7477 6.66667 13.7477C7.70987 13.7477 8.55556 14.5934 8.55556 15.6366V18.4181M5.72222 2.35352V3.83108C5.72222 5.13509 6.77933 6.19219 8.08333 6.19219H8.55556C9.59876 6.19219 10.4444 7.03788 10.4444 8.08108C10.4444 9.12429 11.2901 9.96997 12.3333 9.96997C13.3765 9.96997 14.2222 9.12429 14.2222 8.08108C14.2222 7.03788 15.0679 6.19219 16.1111 6.19219L17.1165 6.19219M12.3333 17.9863V15.6366C12.3333 14.5934 13.179 13.7477 14.2222 13.7477H17.1165M18 9.96997C18 14.6644 14.1944 18.47 9.5 18.47C4.80558 18.47 1 14.6644 1 9.96997C1 5.27555 4.80558 1.46997 9.5 1.46997C14.1944 1.46997 18 5.27555 18 9.96997Z" stroke="currentColor" stroke-width="2" stroke-linecap="round" stroke-linejoin="round"/>
</svg>
