<svg width="30" height="25" viewBox="0 0 30 25" xmlns="http://www.w3.org/2000/svg">
  <path fill-rule="evenodd" clip-rule="evenodd" d="M29.1829 1.90381C29.1829 2.4561 28.7351 2.90381 28.1829 2.90381L1.18286 2.90381C0.630577 2.90381 0.182861 2.45609 0.182861 1.90381C0.182861 1.35152 0.630577 0.903809 1.18286 0.903809L28.1829 0.903811C28.7351 0.903811 29.1829 1.35153 29.1829 1.90381ZM29.1829 12.173C29.1829 11.6207 28.7351 11.173 28.1829 11.173L10.1059 11.173C9.55365 11.173 9.10594 11.6207 9.10594 12.173C9.10594 12.7253 9.55365 13.173 10.1059 13.173L28.1829 13.173C28.7351 13.173 29.1829 12.7253 29.1829 12.173ZM28.1829 24.0961C28.7351 24.0961 29.1829 23.6484 29.1829 23.0961C29.1829 22.5438 28.7351 22.0961 28.1829 22.0961L14.5675 22.0961C14.0152 22.0961 13.5675 22.5438 13.5675 23.0961C13.5675 23.6484 14.0152 24.0961 14.5675 24.0961L28.1829 24.0961Z" fill="currentColor" />
</svg>
